'ru.'	'12657/13024'
'wikipedia.'	'12620/12628'
'англ.'	'293/297'
'гг.'	'2355/2437'
'гл.'	'38/41'
'греч.'	'63/64'
'долл.'	'514/541'
'др.'	'2431/2473'
'ед.'	'96/101'
'изд.'	'63/69'
'лат.'	'165/171'
'мн.'	'67/72'
'напр.'	'159/162'
'нач.'	'45/49'
'пр.'	'233/253'
'руб.'	'563/605'
'совр.'	'95/95'
'сокр.'	'55/55'
'ср.'	'196/216'
'тыс.'	'4704/4709'
'ул.'	'429/435'
'фр.'	'75/79'
'чел.'	'1410/1489'
'экз.'	'72/72'
